46.229.164.98 - - [03/Aug/2017:04:55:03 +0200] "GET /robots.txt HTTP/1.1" 404 823 andrevon-jordan.fr "-" "Mozilla/5.0 (compatible; SemrushBot/1.2~bl; +http://www.semrush.com/bot.html)" "-"
77.136.85.217 - - [03/Aug/2017:10:25:08 +0200] "GET / HTTP/1.1" 200 2844 andrevon-jordan.fr "-" "Mozilla/5.0 (Windows NT 10.0; Win64; x64) AppleWebKit/537.36 (KHTML, like Gecko) Chrome/59.0.3071.115 Safari/537.36" "-"
77.136.85.217 - - [03/Aug/2017:10:25:08 +0200] "GET /css/style.css HTTP/1.1" 200 7540 andrevon-jordan.fr "http://andrevon-jordan.fr/" "Mozilla/5.0 (Windows NT 10.0; Win64; x64) AppleWebKit/537.36 (KHTML, like Gecko) Chrome/59.0.3071.115 Safari/537.36" "-"
77.136.85.217 - - [03/Aug/2017:10:25:08 +0200] "GET /js/jquery.js HTTP/1.1" 200 91572 andrevon-jordan.fr "http://andrevon-jordan.fr/" "Mozilla/5.0 (Windows NT 10.0; Win64; x64) AppleWebKit/537.36 (KHTML, like Gecko) Chrome/59.0.3071.115 Safari/537.36" "-"
77.136.85.217 - - [03/Aug/2017:10:25:08 +0200] "GET /js/dynamique.js HTTP/1.1" 200 394 andrevon-jordan.fr "http://andrevon-jordan.fr/" "Mozilla/5.0 (Windows NT 10.0; Win64; x64) AppleWebKit/537.36 (KHTML, like Gecko) Chrome/59.0.3071.115 Safari/537.36" "-"
77.136.85.217 - - [03/Aug/2017:10:25:08 +0200] "GET /js/jquery.bxSlider.js HTTP/1.1" 200 44110 andrevon-jordan.fr "http://andrevon-jordan.fr/" "Mozilla/5.0 (Windows NT 10.0; Win64; x64) AppleWebKit/537.36 (KHTML, like Gecko) Chrome/59.0.3071.115 Safari/537.36" "-"
77.136.85.217 - - [03/Aug/2017:10:25:09 +0200] "GET /gifs/logo.png HTTP/1.1" 200 57000 andrevon-jordan.fr "http://andrevon-jordan.fr/" "Mozilla/5.0 (Windows NT 10.0; Win64; x64) AppleWebKit/537.36 (KHTML, like Gecko) Chrome/59.0.3071.115 Safari/537.36" "-"
77.136.85.217 - - [03/Aug/2017:10:25:09 +0200] "GET /gifs/fond.jpg HTTP/1.1" 200 374232 andrevon-jordan.fr "http://andrevon-jordan.fr/css/style.css" "Mozilla/5.0 (Windows NT 10.0; Win64; x64) AppleWebKit/537.36 (KHTML, like Gecko) Chrome/59.0.3071.115 Safari/537.36" "-"
77.136.85.217 - - [03/Aug/2017:10:25:09 +0200] "GET /gifs/hover_menu.png HTTP/1.1" 200 2774 andrevon-jordan.fr "http://andrevon-jordan.fr/css/style.css" "Mozilla/5.0 (Windows NT 10.0; Win64; x64) AppleWebKit/537.36 (KHTML, like Gecko) Chrome/59.0.3071.115 Safari/537.36" "-"
77.136.85.217 - - [03/Aug/2017:10:25:09 +0200] "GET /gifs/backfooter_frame.jpg HTTP/1.1" 200 1213 andrevon-jordan.fr "http://andrevon-jordan.fr/css/style.css" "Mozilla/5.0 (Windows NT 10.0; Win64; x64) AppleWebKit/537.36 (KHTML, like Gecko) Chrome/59.0.3071.115 Safari/537.36" "-"
77.136.85.217 - - [03/Aug/2017:10:25:09 +0200] "GET /gifs/footer.png HTTP/1.1" 200 113074 andrevon-jordan.fr "http://andrevon-jordan.fr/css/style.css" "Mozilla/5.0 (Windows NT 10.0; Win64; x64) AppleWebKit/537.36 (KHTML, like Gecko) Chrome/59.0.3071.115 Safari/537.36" "-"
77.136.85.217 - - [03/Aug/2017:10:25:09 +0200] "GET /gifs/banderolle_avion.png HTTP/1.1" 200 8838 andrevon-jordan.fr "http://andrevon-jordan.fr/css/style.css" "Mozilla/5.0 (Windows NT 10.0; Win64; x64) AppleWebKit/537.36 (KHTML, like Gecko) Chrome/59.0.3071.115 Safari/537.36" "-"
77.136.85.217 - - [03/Aug/2017:10:25:09 +0200] "GET /favicon.ico HTTP/1.1" 200 1406 andrevon-jordan.fr "http://andrevon-jordan.fr/" "Mozilla/5.0 (Windows NT 10.0; Win64; x64) AppleWebKit/537.36 (KHTML, like Gecko) Chrome/59.0.3071.115 Safari/537.36" "-"
77.136.85.217 - - [03/Aug/2017:10:25:10 +0200] "GET /portfolio.php HTTP/1.1" 200 5970 andrevon-jordan.fr "http://andrevon-jordan.fr/" "Mozilla/5.0 (Windows NT 10.0; Win64; x64) AppleWebKit/537.36 (KHTML, like Gecko) Chrome/59.0.3071.115 Safari/537.36" "-"
77.136.85.217 - - [03/Aug/2017:10:25:10 +0200] "GET /js/gallerie.js HTTP/1.1" 301 247 andrevon-jordan.fr "http://andrevon-jordan.fr/portfolio.php" "Mozilla/5.0 (Windows NT 10.0; Win64; x64) AppleWebKit/537.36 (KHTML, like Gecko) Chrome/59.0.3071.115 Safari/537.36" "-"
77.136.85.217 - - [03/Aug/2017:10:25:10 +0200] "GET /imggalerie/thumbs_port1.jpg HTTP/1.1" 200 16396 andrevon-jordan.fr "http://andrevon-jordan.fr/portfolio.php" "Mozilla/5.0 (Windows NT 10.0; Win64; x64) AppleWebKit/537.36 (KHTML, like Gecko) Chrome/59.0.3071.115 Safari/537.36" "-"
77.136.85.217 - - [03/Aug/2017:10:25:10 +0200] "GET /imggalerie/thumbs_port4.jpg HTTP/1.1" 200 15714 andrevon-jordan.fr "http://andrevon-jordan.fr/portfolio.php" "Mozilla/5.0 (Windows NT 10.0; Win64; x64) AppleWebKit/537.36 (KHTML, like Gecko) Chrome/59.0.3071.115 Safari/537.36" "-"
77.136.85.217 - - [03/Aug/2017:10:25:10 +0200] "GET /imggalerie/thumbs_port2.jpg HTTP/1.1" 200 23547 andrevon-jordan.fr "http://andrevon-jordan.fr/portfolio.php" "Mozilla/5.0 (Windows NT 10.0; Win64; x64) AppleWebKit/537.36 (KHTML, like Gecko) Chrome/59.0.3071.115 Safari/537.36" "-"
77.136.85.217 - - [03/Aug/2017:10:25:10 +0200] "GET /imggalerie/thumbs_port5.jpg HTTP/1.1" 200 12905 andrevon-jordan.fr "http://andrevon-jordan.fr/portfolio.php" "Mozilla/5.0 (Windows NT 10.0; Win64; x64) AppleWebKit/537.36 (KHTML, like Gecko) Chrome/59.0.3071.115 Safari/537.36" "-"
77.136.85.217 - - [03/Aug/2017:10:25:10 +0200] "GET /imggalerie/thumbs_port3.jpg HTTP/1.1" 200 11589 andrevon-jordan.fr "http://andrevon-jordan.fr/portfolio.php" "Mozilla/5.0 (Windows NT 10.0; Win64; x64) AppleWebKit/537.36 (KHTML, like Gecko) Chrome/59.0.3071.115 Safari/537.36" "-"
77.136.85.217 - - [03/Aug/2017:10:25:10 +0200] "GET /js/galerie.js HTTP/1.1" 200 1233 andrevon-jordan.fr "http://andrevon-jordan.fr/portfolio.php" "Mozilla/5.0 (Windows NT 10.0; Win64; x64) AppleWebKit/537.36 (KHTML, like Gecko) Chrome/59.0.3071.115 Safari/537.36" "-"
77.136.85.217 - - [03/Aug/2017:10:25:10 +0200] "GET /imggalerie/thumbs_port6.jpg HTTP/1.1" 200 23467 andrevon-jordan.fr "http://andrevon-jordan.fr/portfolio.php" "Mozilla/5.0 (Windows NT 10.0; Win64; x64) AppleWebKit/537.36 (KHTML, like Gecko) Chrome/59.0.3071.115 Safari/537.36" "-"
77.136.85.217 - - [03/Aug/2017:10:25:10 +0200] "GET /imggalerie/thumbs_port8.jpg HTTP/1.1" 200 10901 andrevon-jordan.fr "http://andrevon-jordan.fr/portfolio.php" "Mozilla/5.0 (Windows NT 10.0; Win64; x64) AppleWebKit/537.36 (KHTML, like Gecko) Chrome/59.0.3071.115 Safari/537.36" "-"
77.136.85.217 - - [03/Aug/2017:10:25:10 +0200] "GET /imggalerie/thumbs_port10.jpg HTTP/1.1" 200 15043 andrevon-jordan.fr "http://andrevon-jordan.fr/portfolio.php" "Mozilla/5.0 (Windows NT 10.0; Win64; x64) AppleWebKit/537.36 (KHTML, like Gecko) Chrome/59.0.3071.115 Safari/537.36" "-"
77.136.85.217 - - [03/Aug/2017:10:25:10 +0200] "GET /imggalerie/thumbs_port9.jpg HTTP/1.1" 200 17623 andrevon-jordan.fr "http://andrevon-jordan.fr/portfolio.php" "Mozilla/5.0 (Windows NT 10.0; Win64; x64) AppleWebKit/537.36 (KHTML, like Gecko) Chrome/59.0.3071.115 Safari/537.36" "-"
77.136.85.217 - - [03/Aug/2017:10:25:10 +0200] "GET /imggalerie/thumbs_port7.jpg HTTP/1.1" 200 14561 andrevon-jordan.fr "http://andrevon-jordan.fr/portfolio.php" "Mozilla/5.0 (Windows NT 10.0; Win64; x64) AppleWebKit/537.36 (KHTML, like Gecko) Chrome/59.0.3071.115 Safari/537.36" "-"
77.136.85.217 - - [03/Aug/2017:10:25:10 +0200] "GET /imggalerie/thumbs_port30.jpg HTTP/1.1" 200 23807 andrevon-jordan.fr "http://andrevon-jordan.fr/portfolio.php" "Mozilla/5.0 (Windows NT 10.0; Win64; x64) AppleWebKit/537.36 (KHTML, like Gecko) Chrome/59.0.3071.115 Safari/537.36" "-"
77.136.85.217 - - [03/Aug/2017:10:25:10 +0200] "GET /imggalerie/thumbs_port11.jpg HTTP/1.1" 200 14241 andrevon-jordan.fr "http://andrevon-jordan.fr/portfolio.php" "Mozilla/5.0 (Windows NT 10.0; Win64; x64) AppleWebKit/537.36 (KHTML, like Gecko) Chrome/59.0.3071.115 Safari/537.36" "-"
77.136.85.217 - - [03/Aug/2017:10:25:10 +0200] "GET /imggalerie/thumbs_port17.jpg HTTP/1.1" 200 22644 andrevon-jordan.fr "http://andrevon-jordan.fr/portfolio.php" "Mozilla/5.0 (Windows NT 10.0; Win64; x64) AppleWebKit/537.36 (KHTML, like Gecko) Chrome/59.0.3071.115 Safari/537.36" "-"
77.136.85.217 - - [03/Aug/2017:10:25:10 +0200] "GET /imggalerie/thumbs_port18.jpg HTTP/1.1" 200 22463 andrevon-jordan.fr "http://andrevon-jordan.fr/portfolio.php" "Mozilla/5.0 (Windows NT 10.0; Win64; x64) AppleWebKit/537.36 (KHTML, like Gecko) Chrome/59.0.3071.115 Safari/537.36" "-"
77.136.85.217 - - [03/Aug/2017:10:25:10 +0200] "GET /imggalerie/thumbs_port15.jpg HTTP/1.1" 200 2206 andrevon-jordan.fr "http://andrevon-jordan.fr/portfolio.php" "Mozilla/5.0 (Windows NT 10.0; Win64; x64) AppleWebKit/537.36 (KHTML, like Gecko) Chrome/59.0.3071.115 Safari/537.36" "-"
77.136.85.217 - - [03/Aug/2017:10:25:10 +0200] "GET /imggalerie/thumbs_port14.jpg HTTP/1.1" 200 16365 andrevon-jordan.fr "http://andrevon-jordan.fr/portfolio.php" "Mozilla/5.0 (Windows NT 10.0; Win64; x64) AppleWebKit/537.36 (KHTML, like Gecko) Chrome/59.0.3071.115 Safari/537.36" "-"
77.136.85.217 - - [03/Aug/2017:10:25:10 +0200] "GET /imggalerie/thumbs_port34.jpg HTTP/1.1" 200 12868 andrevon-jordan.fr "http://andrevon-jordan.fr/portfolio.php" "Mozilla/5.0 (Windows NT 10.0; Win64; x64) AppleWebKit/537.36 (KHTML, like Gecko) Chrome/59.0.3071.115 Safari/537.36" "-"
77.136.85.217 - - [03/Aug/2017:10:25:10 +0200] "GET /imggalerie/thumbs_port28.jpg HTTP/1.1" 200 24215 andrevon-jordan.fr "http://andrevon-jordan.fr/portfolio.php" "Mozilla/5.0 (Windows NT 10.0; Win64; x64) AppleWebKit/537.36 (KHTML, like Gecko) Chrome/59.0.3071.115 Safari/537.36" "-"
77.136.85.217 - - [03/Aug/2017:10:25:10 +0200] "GET /imggalerie/thumbs_port27.jpg HTTP/1.1" 200 23243 andrevon-jordan.fr "http://andrevon-jordan.fr/portfolio.php" "Mozilla/5.0 (Windows NT 10.0; Win64; x64) AppleWebKit/537.36 (KHTML, like Gecko) Chrome/59.0.3071.115 Safari/537.36" "-"
77.136.85.217 - - [03/Aug/2017:10:25:10 +0200] "GET /imggalerie/thumbs_port29.jpg HTTP/1.1" 200 23869 andrevon-jordan.fr "http://andrevon-jordan.fr/portfolio.php" "Mozilla/5.0 (Windows NT 10.0; Win64; x64) AppleWebKit/537.36 (KHTML, like Gecko) Chrome/59.0.3071.115 Safari/537.36" "-"
77.136.85.217 - - [03/Aug/2017:10:25:11 +0200] "GET /imggalerie/thumbs_port16.jpg HTTP/1.1" 200 3343 andrevon-jordan.fr "http://andrevon-jordan.fr/portfolio.php" "Mozilla/5.0 (Windows NT 10.0; Win64; x64) AppleWebKit/537.36 (KHTML, like Gecko) Chrome/59.0.3071.115 Safari/537.36" "-"
77.136.85.217 - - [03/Aug/2017:10:25:11 +0200] "GET /imggalerie/thumbs_port12.jpg HTTP/1.1" 200 11701 andrevon-jordan.fr "http://andrevon-jordan.fr/portfolio.php" "Mozilla/5.0 (Windows NT 10.0; Win64; x64) AppleWebKit/537.36 (KHTML, like Gecko) Chrome/59.0.3071.115 Safari/537.36" "-"
77.136.85.217 - - [03/Aug/2017:10:25:11 +0200] "GET /imggalerie/thumbs_port36.jpg HTTP/1.1" 200 13723 andrevon-jordan.fr "http://andrevon-jordan.fr/portfolio.php" "Mozilla/5.0 (Windows NT 10.0; Win64; x64) AppleWebKit/537.36 (KHTML, like Gecko) Chrome/59.0.3071.115 Safari/537.36" "-"
77.136.85.217 - - [03/Aug/2017:10:25:11 +0200] "GET /imggalerie/thumbs_port23.jpg HTTP/1.1" 200 24729 andrevon-jordan.fr "http://andrevon-jordan.fr/portfolio.php" "Mozilla/5.0 (Windows NT 10.0; Win64; x64) AppleWebKit/537.36 (KHTML, like Gecko) Chrome/59.0.3071.115 Safari/537.36" "-"
77.136.85.217 - - [03/Aug/2017:10:25:11 +0200] "GET /imggalerie/thumbs_port20.jpg HTTP/1.1" 200 15698 andrevon-jordan.fr "http://andrevon-jordan.fr/portfolio.php" "Mozilla/5.0 (Windows NT 10.0; Win64; x64) AppleWebKit/537.36 (KHTML, like Gecko) Chrome/59.0.3071.115 Safari/537.36" "-"
77.136.85.217 - - [03/Aug/2017:10:25:11 +0200] "GET /imggalerie/thumbs_port32.jpg HTTP/1.1" 200 20477 andrevon-jordan.fr "http://andrevon-jordan.fr/portfolio.php" "Mozilla/5.0 (Windows NT 10.0; Win64; x64) AppleWebKit/537.36 (KHTML, like Gecko) Chrome/59.0.3071.115 Safari/537.36" "-"
77.136.85.217 - - [03/Aug/2017:10:25:11 +0200] "GET /imggalerie/thumbs_port19.jpg HTTP/1.1" 200 18507 andrevon-jordan.fr "http://andrevon-jordan.fr/portfolio.php" "Mozilla/5.0 (Windows NT 10.0; Win64; x64) AppleWebKit/537.36 (KHTML, like Gecko) Chrome/59.0.3071.115 Safari/537.36" "-"
77.136.85.217 - - [03/Aug/2017:10:25:11 +0200] "GET /imggalerie/port2.jpg HTTP/1.1" 200 99907 andrevon-jordan.fr "http://andrevon-jordan.fr/portfolio.php" "Mozilla/5.0 (Windows NT 10.0; Win64; x64) AppleWebKit/537.36 (KHTML, like Gecko) Chrome/59.0.3071.115 Safari/537.36" "-"
77.136.85.217 - - [03/Aug/2017:10:25:11 +0200] "GET /imggalerie/thumbs_port26.jpg HTTP/1.1" 200 22639 andrevon-jordan.fr "http://andrevon-jordan.fr/portfolio.php" "Mozilla/5.0 (Windows NT 10.0; Win64; x64) AppleWebKit/537.36 (KHTML, like Gecko) Chrome/59.0.3071.115 Safari/537.36" "-"
77.136.85.217 - - [03/Aug/2017:10:25:11 +0200] "GET /imggalerie/thumbs_port25.jpg HTTP/1.1" 200 17906 andrevon-jordan.fr "http://andrevon-jordan.fr/portfolio.php" "Mozilla/5.0 (Windows NT 10.0; Win64; x64) AppleWebKit/537.36 (KHTML, like Gecko) Chrome/59.0.3071.115 Safari/537.36" "-"
77.136.85.217 - - [03/Aug/2017:10:25:11 +0200] "GET /imggalerie/thumbs_port35.jpg HTTP/1.1" 200 19444 andrevon-jordan.fr "http://andrevon-jordan.fr/portfolio.php" "Mozilla/5.0 (Windows NT 10.0; Win64; x64) AppleWebKit/537.36 (KHTML, like Gecko) Chrome/59.0.3071.115 Safari/537.36" "-"
77.136.85.217 - - [03/Aug/2017:10:25:11 +0200] "GET /imggalerie/thumbs_port24.jpg HTTP/1.1" 200 23067 andrevon-jordan.fr "http://andrevon-jordan.fr/portfolio.php" "Mozilla/5.0 (Windows NT 10.0; Win64; x64) AppleWebKit/537.36 (KHTML, like Gecko) Chrome/59.0.3071.115 Safari/537.36" "-"
77.136.85.217 - - [03/Aug/2017:10:25:11 +0200] "GET /imggalerie/thumbs_port31.jpg HTTP/1.1" 200 17614 andrevon-jordan.fr "http://andrevon-jordan.fr/portfolio.php" "Mozilla/5.0 (Windows NT 10.0; Win64; x64) AppleWebKit/537.36 (KHTML, like Gecko) Chrome/59.0.3071.115 Safari/537.36" "-"
77.136.85.217 - - [03/Aug/2017:10:25:11 +0200] "GET /cv.php HTTP/1.1" 200 3134 andrevon-jordan.fr "http://andrevon-jordan.fr/portfolio.php" "Mozilla/5.0 (Windows NT 10.0; Win64; x64) AppleWebKit/537.36 (KHTML, like Gecko) Chrome/59.0.3071.115 Safari/537.36" "-"
77.136.85.217 - - [03/Aug/2017:10:25:11 +0200] "GET /cvimg/images/poneygauche.png HTTP/1.1" 200 18905 andrevon-jordan.fr "http://andrevon-jordan.fr/cv.php" "Mozilla/5.0 (Windows NT 10.0; Win64; x64) AppleWebKit/537.36 (KHTML, like Gecko) Chrome/59.0.3071.115 Safari/537.36" "-"
77.136.85.217 - - [03/Aug/2017:10:25:11 +0200] "GET /cvimg/images/poneydroite.png HTTP/1.1" 200 18906 andrevon-jordan.fr "http://andrevon-jordan.fr/cv.php" "Mozilla/5.0 (Windows NT 10.0; Win64; x64) AppleWebKit/537.36 (KHTML, like Gecko) Chrome/59.0.3071.115 Safari/537.36" "-"
77.136.85.217 - - [03/Aug/2017:10:25:11 +0200] "GET /cvimg/images/etoile_big.png HTTP/1.1" 200 4788 andrevon-jordan.fr "http://andrevon-jordan.fr/css/style.css" "Mozilla/5.0 (Windows NT 10.0; Win64; x64) AppleWebKit/537.36 (KHTML, like Gecko) Chrome/59.0.3071.115 Safari/537.36" "-"
77.136.85.217 - - [03/Aug/2017:10:25:12 +0200] "GET /index.php HTTP/1.1" 200 2844 andrevon-jordan.fr "http://andrevon-jordan.fr/cv.php" "Mozilla/5.0 (Windows NT 10.0; Win64; x64) AppleWebKit/537.36 (KHTML, like Gecko) Chrome/59.0.3071.115 Safari/537.36" "-"
77.136.85.217 - - [03/Aug/2017:10:25:13 +0200] "GET /portfolio.php HTTP/1.1" 200 5970 andrevon-jordan.fr "http://andrevon-jordan.fr/index.php" "Mozilla/5.0 (Windows NT 10.0; Win64; x64) AppleWebKit/537.36 (KHTML, like Gecko) Chrome/59.0.3071.115 Safari/537.36" "-"
77.136.85.217 - - [03/Aug/2017:10:25:14 +0200] "GET /index.php HTTP/1.1" 200 2844 andrevon-jordan.fr "http://andrevon-jordan.fr/portfolio.php" "Mozilla/5.0 (Windows NT 10.0; Win64; x64) AppleWebKit/537.36 (KHTML, like Gecko) Chrome/59.0.3071.115 Safari/537.36" "-"
77.136.85.217 - - [03/Aug/2017:10:25:17 +0200] "GET /gifs/hover_banderolle_avion.png HTTP/1.1" 200 8663 andrevon-jordan.fr "http://andrevon-jordan.fr/css/style.css" "Mozilla/5.0 (Windows NT 10.0; Win64; x64) AppleWebKit/537.36 (KHTML, like Gecko) Chrome/59.0.3071.115 Safari/537.36" "-"
77.136.85.217 - - [03/Aug/2017:10:34:49 +0200] "GET /cv.php HTTP/1.1" 200 3134 andrevon-jordan.fr "http://andrevon-jordan.fr/index.php" "Mozilla/5.0 (Windows NT 10.0; Win64; x64) AppleWebKit/537.36 (KHTML, like Gecko) Chrome/59.0.3071.115 Safari/537.36" "-"
77.136.85.217 - - [03/Aug/2017:10:34:51 +0200] "GET /index.php HTTP/1.1" 200 2844 andrevon-jordan.fr "http://andrevon-jordan.fr/cv.php" "Mozilla/5.0 (Windows NT 10.0; Win64; x64) AppleWebKit/537.36 (KHTML, like Gecko) Chrome/59.0.3071.115 Safari/537.36" "-"
